{
  "$schema": "https://docs.renovatebot.com/renovate-schema.json",
  "extends": [
    "local>hpc-registry/renovate-config",
    "local>hpc-registry/renovate-config//managers/dockerfile.json5",
    ":assignAndReview(mminar)",
    ":automergePatch",
    ":automergeLinters",
    ":automergeDigest",
  ],
  "customManagers": [
    {
      /** Example:
       *    variables:
       *      # renovate: datasource=github-releases depName=hadolint/hadolint
       *      HADOLINT_VERSION: 2.12.0
       */
      "customType": "regex",
      "fileMatch": ["^\\.gitlab-ci\\.ya?ml$", "^\\.gitlab/.*\\.ya?ml$"],
      "matchStrings": [
        "#\\s*renovate:\\s*datasource=(?<datasource>[^\\s]+) depName=(?<depName>[^\\s]+)(?: versioning=(?<versioning>[^\\s]+))?\\s+[A-Z0-9_]*VERSION: (?<currentValue>[^\\s]+)\\s",
      ],
      "versioningTemplate": "{{#if versioning}}{{{versioning}}}{{else}}semver{{/if}}",
    },
  ],
}
